<?xml version="1.0" encoding="utf-8"?>
<!-- Generator: Adobe Illustrator 16.0.0, SVG Export Plug-In . SVG Version: 6.00 Build 0)  -->
<!DOCTYPE svg PUBLIC "-//W3C//DTD SVG 1.1//EN" "http://www.w3.org/Graphics/SVG/1.1/DTD/svg11.dtd" [
	<!ENTITY ns_extend "http://ns.adobe.com/Extensibility/1.0/">
	<!ENTITY ns_ai "http://ns.adobe.com/AdobeIllustrator/10.0/">
	<!ENTITY ns_graphs "http://ns.adobe.com/Graphs/1.0/">
	<!ENTITY ns_vars "http://ns.adobe.com/Variables/1.0/">
	<!ENTITY ns_imrep "http://ns.adobe.com/ImageReplacement/1.0/">
	<!ENTITY ns_sfw "http://ns.adobe.com/SaveForWeb/1.0/">
	<!ENTITY ns_custom "http://ns.adobe.com/GenericCustomNamespace/1.0/">
	<!ENTITY ns_adobe_xpath "http://ns.adobe.com/XPath/1.0/">
]>
<svg version="1.1" xmlns:x="&ns_extend;" xmlns:i="&ns_ai;" xmlns:graph="&ns_graphs;"
	 xmlns="http://www.w3.org/2000/svg" xmlns:xlink="http://www.w3.org/1999/xlink" x="0px" y="0px" width="180px" height="180px"
	 viewBox="0 0 180 180" enable-background="new 0 0 180 180" xml:space="preserve">
<metadata>
	<sfw  xmlns="&ns_sfw;">
		<slices></slices>
		<sliceSourceBounds  height="16383" width="16383" y="-8282" x="-8101" bottomLeftOrigin="true"></sliceSourceBounds>
	</sfw>
</metadata>
<g id="Background">
</g>
<g id="Pixels">
	<g>
		<rect x="60.5" y="132.5" fill="#B3B4B4" width="59" height="11"/>
		<path fill="#B3B4B4" d="M119,133v10H61v-10H119 M120,132H60v12h60V132L120,132z"/>
	</g>
	<g>
		<rect x="48.5" y="120.5" fill="#B3B4B4" width="11" height="11"/>
		<path fill="#B3B4B4" d="M59,121v10H49v-10H59 M60,120H48v12h12V120L60,120z"/>
	</g>
	<g>
		<rect x="36.5" y="108.5" fill="#B3B4B4" width="11" height="11"/>
		<path fill="#B3B4B4" d="M47,109v10H37v-10H47 M48,108H36v12h12V108L48,108z"/>
	</g>
	<g>
		<rect x="36.5" y="96.5" fill="#B3B4B4" width="11" height="11"/>
		<path fill="#B3B4B4" d="M47,97v10H37V97H47 M48,96H36v12h12V96L48,96z"/>
	</g>
	<g>
		<rect x="60.5" y="48.5" fill="#B3B4B4" width="11" height="11"/>
		<path fill="#B3B4B4" d="M71,49v10H61V49H71 M72,48H60v12h12V48L72,48z"/>
	</g>
	<g>
		<rect x="72.5" y="48.5" fill="#B3B4B4" width="11" height="11"/>
		<path fill="#B3B4B4" d="M83,49v10H73V49H83 M84,48H72v12h12V48L84,48z"/>
	</g>
	<g>
		<rect x="48.5" y="48.5" fill="#B3B4B4" width="11" height="11"/>
		<path fill="#B3B4B4" d="M59,49v10H49V49H59 M60,48H48v12h12V48L60,48z"/>
	</g>
	<g>
		<rect x="108.5" y="48.5" fill="#B3B4B4" width="11" height="11"/>
		<path fill="#B3B4B4" d="M119,49v10h-10V49H119 M120,48h-12v12h12V48L120,48z"/>
	</g>
	<g>
		<rect x="120.5" y="36.5" fill="#B3B4B4" width="11" height="11"/>
		<path fill="#B3B4B4" d="M131,37v10h-10V37H131 M132,36h-12v12h12V36L132,36z"/>
	</g>
	<g>
		<rect x="120.5" y="48.5" fill="#B3B4B4" width="11" height="11"/>
		<path fill="#B3B4B4" d="M131,49v10h-10V49H131 M132,48h-12v12h12V48L132,48z"/>
	</g>
	<g>
		<rect x="108.5" y="36.5" fill="#B3B4B4" width="11" height="11"/>
		<path fill="#B3B4B4" d="M119,37v10h-10V37H119 M120,36h-12v12h12V36L120,36z"/>
	</g>
	<g>
		<rect x="120.5" y="120.5" fill="#B3B4B4" width="11" height="11"/>
		<path fill="#B3B4B4" d="M131,121v10h-10v-10H131 M132,120h-12v12h12V120L132,120z"/>
	</g>
	<g>
		<rect x="132.5" y="108.5" fill="#B3B4B4" width="11" height="11"/>
		<path fill="#B3B4B4" d="M143,109v10h-10v-10H143 M144,108h-12v12h12V108L144,108z"/>
	</g>
	<g>
		<rect x="132.5" y="96.5" fill="#B3B4B4" width="11" height="11"/>
		<path fill="#B3B4B4" d="M143,97v10h-10V97H143 M144,96h-12v12h12V96L144,96z"/>
	</g>
</g>
</svg>
