<?xml version="1.0" encoding="utf-8"?>
<!-- Generator: Adobe Illustrator 16.0.4, SVG Export Plug-In . SVG Version: 6.00 Build 0)  -->
<!DOCTYPE svg PUBLIC "-//W3C//DTD SVG 1.1//EN" "http://www.w3.org/Graphics/SVG/1.1/DTD/svg11.dtd">
<svg version="1.1" id="Layer_1" xmlns="http://www.w3.org/2000/svg" xmlns:xlink="http://www.w3.org/1999/xlink" x="0px" y="0px"
	 width="32px" height="31px" viewBox="0 0 32 31" enable-background="new 0 0 32 31" xml:space="preserve">
<g id="New_Symbol_3">
</g>
<g id="New_Symbol">
</g>
<g>
	<g>
		<g>
			
				<rect x="22.416" y="14.178" transform="matrix(0.6835 0.7299 -0.7299 0.6835 24.387 -9.7313)" fill="#4880FA" width="2" height="18.16"/>
		</g>
		<g>
			
				<rect x="14.335" y="6.741" transform="matrix(0.7299 0.6836 -0.6836 0.7299 11.6161 -13.9152)" fill="#4880FA" width="18.161" height="2"/>
		</g>
	</g>
	<g>
		<rect x="1.272" y="14.688" fill="#4880FA" width="22.758" height="2"/>
	</g>
</g>
</svg>
