<?xml version="1.0" encoding="utf-8"?>
<!-- Generator: Adobe Illustrator 16.0.4, SVG Export Plug-In . SVG Version: 6.00 Build 0)  -->
<!DOCTYPE svg PUBLIC "-//W3C//DTD SVG 1.1//EN" "http://www.w3.org/Graphics/SVG/1.1/DTD/svg11.dtd">
<svg version="1.1" id="Layer_1" xmlns="http://www.w3.org/2000/svg" xmlns:xlink="http://www.w3.org/1999/xlink" x="0px" y="0px"
	 width="44px" height="46px" viewBox="0 0 44 46" enable-background="new 0 0 44 46" xml:space="preserve">
<g>
	<g>
		<defs>
			<polygon id="SVGID_1_" points="94.632,34.619 75.146,43.995 57.341,34.619 57.341,25.736 94.632,24.736 			"/>
		</defs>
		<clipPath id="SVGID_2_">
			<use xlink:href="#SVGID_1_"  overflow="visible"/>
		</clipPath>
		<g clip-path="url(#SVGID_2_)">
			
				<line fill="none" stroke="#999999" stroke-width="0.9187" stroke-linecap="round" stroke-linejoin="round" stroke-miterlimit="10" x1="41.456" y1="43.791" x2="77.348" y2="24.579"/>
			
				<line fill="none" stroke="#999999" stroke-width="0.9187" stroke-linecap="round" stroke-linejoin="round" stroke-miterlimit="10" x1="36.342" y1="43.791" x2="72.234" y2="24.579"/>
			
				<line fill="none" stroke="#999999" stroke-width="0.9187" stroke-linecap="round" stroke-linejoin="round" stroke-miterlimit="10" x1="31.228" y1="43.791" x2="67.119" y2="24.579"/>
			
				<line fill="none" stroke="#999999" stroke-width="0.9187" stroke-linecap="round" stroke-linejoin="round" stroke-miterlimit="10" x1="26.114" y1="43.791" x2="62.005" y2="24.579"/>
			
				<line fill="none" stroke="#999999" stroke-width="0.9187" stroke-linecap="round" stroke-linejoin="round" stroke-miterlimit="10" x1="21" y1="43.791" x2="56.892" y2="24.579"/>
		</g>
	</g>
</g>
<g>
	<g>
		<defs>
			<polygon id="SVGID_3_" points="-12.301,34.619 -31.787,43.995 -49.592,34.619 -49.592,25.736 -12.301,24.736 			"/>
		</defs>
		<clipPath id="SVGID_4_">
			<use xlink:href="#SVGID_3_"  overflow="visible"/>
		</clipPath>
		<g clip-path="url(#SVGID_4_)">
			
				<line fill="none" stroke="#CE511B" stroke-width="0.9187" stroke-linecap="round" stroke-linejoin="round" stroke-miterlimit="10" x1="-9.223" y1="43.791" x2="26.668" y2="24.579"/>
			
				<line fill="none" stroke="#CE511B" stroke-width="0.9187" stroke-linecap="round" stroke-linejoin="round" stroke-miterlimit="10" x1="-14.337" y1="43.791" x2="21.555" y2="24.579"/>
			
				<line fill="none" stroke="#CE511B" stroke-width="0.9187" stroke-linecap="round" stroke-linejoin="round" stroke-miterlimit="10" x1="-19.451" y1="43.791" x2="16.44" y2="24.579"/>
			
				<line fill="none" stroke="#CE511B" stroke-width="0.9187" stroke-linecap="round" stroke-linejoin="round" stroke-miterlimit="10" x1="-24.565" y1="43.791" x2="11.326" y2="24.579"/>
			
				<line fill="none" stroke="#CE511B" stroke-width="0.9187" stroke-linecap="round" stroke-linejoin="round" stroke-miterlimit="10" x1="-29.679" y1="43.791" x2="6.213" y2="24.579"/>
			
				<line fill="none" stroke="#CE511B" stroke-width="0.9187" stroke-linecap="round" stroke-linejoin="round" stroke-miterlimit="10" x1="-34.793" y1="43.791" x2="1.099" y2="24.579"/>
		</g>
	</g>
</g>
<g>
	
		<line fill="none" stroke="#5C9AD3" stroke-width="2.0099" stroke-linecap="round" stroke-linejoin="round" stroke-miterlimit="10" x1="4.028" y1="11.419" x2="21.384" y2="2.001"/>
	
		<line fill="none" stroke="#5C9AD3" stroke-width="2.0099" stroke-linecap="round" stroke-linejoin="round" stroke-miterlimit="10" x1="22.805" y1="2.001" x2="40.158" y2="11.419"/>
	
		<line fill="none" stroke="#5C9AD3" stroke-width="2.0099" stroke-linecap="round" stroke-linejoin="round" stroke-miterlimit="10" x1="40.869" y1="13.196" x2="40.869" y2="33.099"/>
	
		<line fill="none" stroke="#5C9AD3" stroke-width="2.0099" stroke-linecap="round" stroke-linejoin="round" stroke-miterlimit="10" x1="40.158" y1="34.521" x2="22.805" y2="43.938"/>
	
		<line fill="none" stroke="#5C9AD3" stroke-width="2.0099" stroke-linecap="round" stroke-linejoin="round" stroke-miterlimit="10" x1="21.384" y1="43.938" x2="4.384" y2="34.876"/>
	
		<line fill="none" stroke="#5C9AD3" stroke-width="2.0099" stroke-linecap="round" stroke-linejoin="round" stroke-miterlimit="10" x1="3.318" y1="33.454" x2="3.318" y2="13.196"/>
	<g>
		<defs>
			<polygon id="SVGID_5_" points="40.665,34.62 21.18,43.995 3.374,34.62 3.374,25.737 40.665,24.737 			"/>
		</defs>
		<clipPath id="SVGID_6_">
			<use xlink:href="#SVGID_5_"  overflow="visible"/>
		</clipPath>
		<g clip-path="url(#SVGID_6_)">
			
				<line fill="none" stroke="#5C9AD3" stroke-width="0.9139" stroke-linecap="round" stroke-linejoin="round" stroke-miterlimit="10" x1="43.342" y1="43.792" x2="79.047" y2="24.681"/>
			
				<line fill="none" stroke="#5C9AD3" stroke-width="0.9139" stroke-linecap="round" stroke-linejoin="round" stroke-miterlimit="10" x1="38.254" y1="43.792" x2="73.959" y2="24.681"/>
			
				<line fill="none" stroke="#5C9AD3" stroke-width="0.9139" stroke-linecap="round" stroke-linejoin="round" stroke-miterlimit="10" x1="33.167" y1="43.792" x2="68.873" y2="24.681"/>
			
				<line fill="none" stroke="#5C9AD3" stroke-width="0.9139" stroke-linecap="round" stroke-linejoin="round" stroke-miterlimit="10" x1="28.08" y1="43.792" x2="63.785" y2="24.681"/>
			
				<line fill="none" stroke="#5C9AD3" stroke-width="0.9139" stroke-linecap="round" stroke-linejoin="round" stroke-miterlimit="10" x1="22.993" y1="43.792" x2="58.697" y2="24.681"/>
			
				<line fill="none" stroke="#5C9AD3" stroke-width="0.9139" stroke-linecap="round" stroke-linejoin="round" stroke-miterlimit="10" x1="17.905" y1="43.792" x2="53.61" y2="24.681"/>
			
				<line fill="none" stroke="#5C9AD3" stroke-width="0.9139" stroke-linecap="round" stroke-linejoin="round" stroke-miterlimit="10" x1="12.818" y1="43.792" x2="48.523" y2="24.681"/>
			
				<line fill="none" stroke="#5C9AD3" stroke-width="0.9139" stroke-linecap="round" stroke-linejoin="round" stroke-miterlimit="10" x1="7.731" y1="43.792" x2="43.436" y2="24.681"/>
			
				<line fill="none" stroke="#5C9AD3" stroke-width="0.9139" stroke-linecap="round" stroke-linejoin="round" stroke-miterlimit="10" x1="2.644" y1="43.792" x2="38.348" y2="24.681"/>
			
				<line fill="none" stroke="#5C9AD3" stroke-width="0.9139" stroke-linecap="round" stroke-linejoin="round" stroke-miterlimit="10" x1="-2.443" y1="43.792" x2="33.261" y2="24.681"/>
			
				<line fill="none" stroke="#5C9AD3" stroke-width="0.9139" stroke-linecap="round" stroke-linejoin="round" stroke-miterlimit="10" x1="-7.531" y1="43.792" x2="28.174" y2="24.681"/>
			
				<line fill="none" stroke="#5C9AD3" stroke-width="0.9139" stroke-linecap="round" stroke-linejoin="round" stroke-miterlimit="10" x1="-12.618" y1="43.792" x2="23.086" y2="24.681"/>
			
				<line fill="none" stroke="#5C9AD3" stroke-width="0.9139" stroke-linecap="round" stroke-linejoin="round" stroke-miterlimit="10" x1="-17.705" y1="43.792" x2="17.999" y2="24.681"/>
			
				<line fill="none" stroke="#5C9AD3" stroke-width="0.9139" stroke-linecap="round" stroke-linejoin="round" stroke-miterlimit="10" x1="-22.792" y1="43.792" x2="12.912" y2="24.681"/>
			
				<line fill="none" stroke="#5C9AD3" stroke-width="0.9139" stroke-linecap="round" stroke-linejoin="round" stroke-miterlimit="10" x1="-27.879" y1="43.792" x2="7.825" y2="24.681"/>
			
				<line fill="none" stroke="#5C9AD3" stroke-width="0.9139" stroke-linecap="round" stroke-linejoin="round" stroke-miterlimit="10" x1="-32.967" y1="43.792" x2="2.737" y2="24.681"/>
		</g>
	</g>
</g>
<g id="New_Symbol_3">
</g>
<g id="New_Symbol">
</g>
</svg>
