<?xml version="1.0" encoding="utf-8"?>
<!-- Generator: Adobe Illustrator 16.0.4, SVG Export Plug-In . SVG Version: 6.00 Build 0)  -->
<!DOCTYPE svg PUBLIC "-//W3C//DTD SVG 1.1//EN" "http://www.w3.org/Graphics/SVG/1.1/DTD/svg11.dtd">
<svg version="1.1" id="Layer_1" xmlns="http://www.w3.org/2000/svg" xmlns:xlink="http://www.w3.org/1999/xlink" x="0px" y="0px"
	 width="44px" height="46px" viewBox="0 0 44 46" enable-background="new 0 0 44 46" xml:space="preserve">
<g>
	
		<line fill="none" stroke="#CE511B" stroke-width="2.0099" stroke-linecap="round" stroke-linejoin="round" stroke-miterlimit="10" x1="3.935" y1="11.418" x2="21.29" y2="2"/>
	
		<line fill="none" stroke="#CE511B" stroke-width="2.0099" stroke-linecap="round" stroke-linejoin="round" stroke-miterlimit="10" x1="22.711" y1="2" x2="40.064" y2="11.418"/>
	
		<line fill="none" stroke="#CE511B" stroke-width="2.0099" stroke-linecap="round" stroke-linejoin="round" stroke-miterlimit="10" x1="40.775" y1="13.195" x2="40.775" y2="33.099"/>
	
		<line fill="none" stroke="#CE511B" stroke-width="2.0099" stroke-linecap="round" stroke-linejoin="round" stroke-miterlimit="10" x1="40.064" y1="34.52" x2="22.711" y2="43.938"/>
	
		<line fill="none" stroke="#CE511B" stroke-width="2.0099" stroke-linecap="round" stroke-linejoin="round" stroke-miterlimit="10" x1="21.29" y1="43.938" x2="4.29" y2="34.875"/>
	
		<line fill="none" stroke="#CE511B" stroke-width="2.0099" stroke-linecap="round" stroke-linejoin="round" stroke-miterlimit="10" x1="3.225" y1="33.454" x2="3.225" y2="13.195"/>
	<g>
		<defs>
			<polygon id="SVGID_3_" points="40.571,34.619 21.086,43.995 3.28,34.619 3.28,25.736 40.571,24.736 			"/>
		</defs>
		<clipPath id="SVGID_2_">
			<use xlink:href="#SVGID_3_"  overflow="visible"/>
		</clipPath>
		<g clip-path="url(#SVGID_2_)">
			
				<line fill="none" stroke="#CE511B" stroke-width="0.9187" stroke-linecap="round" stroke-linejoin="round" stroke-miterlimit="10" x1="43.649" y1="43.791" x2="79.541" y2="24.579"/>
			
				<line fill="none" stroke="#CE511B" stroke-width="0.9187" stroke-linecap="round" stroke-linejoin="round" stroke-miterlimit="10" x1="38.535" y1="43.791" x2="74.427" y2="24.579"/>
			
				<line fill="none" stroke="#CE511B" stroke-width="0.9187" stroke-linecap="round" stroke-linejoin="round" stroke-miterlimit="10" x1="33.421" y1="43.791" x2="69.313" y2="24.579"/>
			
				<line fill="none" stroke="#CE511B" stroke-width="0.9187" stroke-linecap="round" stroke-linejoin="round" stroke-miterlimit="10" x1="28.308" y1="43.791" x2="64.199" y2="24.579"/>
			
				<line fill="none" stroke="#CE511B" stroke-width="0.9187" stroke-linecap="round" stroke-linejoin="round" stroke-miterlimit="10" x1="23.193" y1="43.791" x2="59.085" y2="24.579"/>
			
				<line fill="none" stroke="#CE511B" stroke-width="0.9187" stroke-linecap="round" stroke-linejoin="round" stroke-miterlimit="10" x1="18.079" y1="43.791" x2="53.971" y2="24.579"/>
			
				<line fill="none" stroke="#CE511B" stroke-width="0.9187" stroke-linecap="round" stroke-linejoin="round" stroke-miterlimit="10" x1="12.965" y1="43.791" x2="48.857" y2="24.579"/>
			
				<line fill="none" stroke="#CE511B" stroke-width="0.9187" stroke-linecap="round" stroke-linejoin="round" stroke-miterlimit="10" x1="7.852" y1="43.791" x2="43.743" y2="24.579"/>
			
				<line fill="none" stroke="#CE511B" stroke-width="0.9187" stroke-linecap="round" stroke-linejoin="round" stroke-miterlimit="10" x1="2.737" y1="43.791" x2="38.629" y2="24.579"/>
			
				<line fill="none" stroke="#CE511B" stroke-width="0.9187" stroke-linecap="round" stroke-linejoin="round" stroke-miterlimit="10" x1="-2.376" y1="43.791" x2="33.515" y2="24.579"/>
			
				<line fill="none" stroke="#CE511B" stroke-width="0.9187" stroke-linecap="round" stroke-linejoin="round" stroke-miterlimit="10" x1="-7.491" y1="43.791" x2="28.401" y2="24.579"/>
			
				<line fill="none" stroke="#CE511B" stroke-width="0.9187" stroke-linecap="round" stroke-linejoin="round" stroke-miterlimit="10" x1="-12.604" y1="43.791" x2="23.287" y2="24.579"/>
			
				<line fill="none" stroke="#CE511B" stroke-width="0.9187" stroke-linecap="round" stroke-linejoin="round" stroke-miterlimit="10" x1="-17.719" y1="43.791" x2="18.173" y2="24.579"/>
			
				<line fill="none" stroke="#CE511B" stroke-width="0.9187" stroke-linecap="round" stroke-linejoin="round" stroke-miterlimit="10" x1="-22.833" y1="43.791" x2="13.059" y2="24.579"/>
			
				<line fill="none" stroke="#CE511B" stroke-width="0.9187" stroke-linecap="round" stroke-linejoin="round" stroke-miterlimit="10" x1="-27.947" y1="43.791" x2="7.945" y2="24.579"/>
			
				<line fill="none" stroke="#CE511B" stroke-width="0.9187" stroke-linecap="round" stroke-linejoin="round" stroke-miterlimit="10" x1="-33.061" y1="43.791" x2="2.831" y2="24.579"/>
		</g>
	</g>
</g>
<g>
	<g>
		<defs>
			<polygon id="SVGID_5_" points="94.665,34.62 75.18,43.995 57.374,34.62 57.374,25.737 94.665,24.737 			"/>
		</defs>
		<clipPath id="SVGID_4_">
			<use xlink:href="#SVGID_5_"  overflow="visible"/>
		</clipPath>
		<g clip-path="url(#SVGID_4_)">
			
				<line fill="none" stroke="#5C9AD3" stroke-width="0.9139" stroke-linecap="round" stroke-linejoin="round" stroke-miterlimit="10" x1="41.382" y1="43.792" x2="77.086" y2="24.681"/>
			
				<line fill="none" stroke="#5C9AD3" stroke-width="0.9139" stroke-linecap="round" stroke-linejoin="round" stroke-miterlimit="10" x1="36.295" y1="43.792" x2="71.999" y2="24.681"/>
			
				<line fill="none" stroke="#5C9AD3" stroke-width="0.9139" stroke-linecap="round" stroke-linejoin="round" stroke-miterlimit="10" x1="31.208" y1="43.792" x2="66.912" y2="24.681"/>
			
				<line fill="none" stroke="#5C9AD3" stroke-width="0.9139" stroke-linecap="round" stroke-linejoin="round" stroke-miterlimit="10" x1="26.121" y1="43.792" x2="61.825" y2="24.681"/>
			
				<line fill="none" stroke="#5C9AD3" stroke-width="0.9139" stroke-linecap="round" stroke-linejoin="round" stroke-miterlimit="10" x1="21.033" y1="43.792" x2="56.737" y2="24.681"/>
		</g>
	</g>
</g>
<g id="New_Symbol_3">
</g>
<g id="New_Symbol">
</g>
</svg>
