<?xml version="1.0" encoding="utf-8"?>
<!-- Generator: Adobe Illustrator 16.0.1, SVG Export Plug-In . SVG Version: 6.00 Build 0)  -->
<!DOCTYPE svg PUBLIC "-//W3C//DTD SVG 1.1//EN" "http://www.w3.org/Graphics/SVG/1.1/DTD/svg11.dtd">
<svg version="1.1" id="Layer_1" xmlns="http://www.w3.org/2000/svg" xmlns:xlink="http://www.w3.org/1999/xlink" x="0px" y="0px"
	 width="166px" height="75px" viewBox="0 0 166 75" enable-background="new 0 0 166 75" xml:space="preserve">
<g>
	<polygon fill="#5678BB" points="32.412,4.521 31.137,2.311 32.412,0.104 34.961,0.104 36.236,2.311 34.961,4.521 	"/>
	<polygon fill="#5678BB" points="32.412,9.751 31.137,7.544 32.412,5.338 34.961,5.338 36.236,7.544 34.961,9.751 	"/>
	<polygon fill="#5678BB" points="32.412,14.983 31.137,12.774 32.412,10.568 34.961,10.568 36.236,12.774 34.961,14.983 	"/>
	<polygon fill="#5678BB" points="32.412,20.215 31.137,18.009 32.412,15.796 34.961,15.796 36.236,18.009 34.961,20.215 	"/>
	<polygon fill="#5678BB" points="32.412,25.445 31.137,23.237 32.412,21.029 34.961,21.029 36.236,23.237 34.961,25.445 	"/>
	<polygon fill="#5678BB" points="32.412,30.674 31.137,28.467 32.412,26.26 34.961,26.26 36.236,28.467 34.961,30.674 	"/>
	<polygon fill="#5678BB" points="53.215,9.751 51.941,7.544 53.215,5.338 55.764,5.338 57.041,7.544 55.764,9.751 	"/>
	<polygon fill="#5678BB" points="53.215,4.521 51.941,2.311 53.215,0.104 55.764,0.104 57.041,2.311 55.764,4.521 	"/>
	<polygon fill="#5678BB" points="48.043,9.751 46.768,7.544 48.043,5.338 50.598,5.338 51.867,7.544 50.598,9.751 	"/>
	<polygon fill="#5678BB" points="53.215,14.983 51.941,12.774 53.215,10.568 55.764,10.568 57.041,12.774 55.764,14.983 	"/>
	<polygon fill="#5678BB" points="53.215,20.215 51.941,18.009 53.215,15.796 55.764,15.796 57.041,18.009 55.764,20.215 	"/>
	<polygon fill="#5678BB" points="53.215,25.268 51.941,23.057 53.215,20.85 55.764,20.85 57.041,23.057 55.764,25.268 	"/>
	<polygon fill="#5678BB" points="53.215,30.5 51.941,28.29 53.215,26.081 55.764,26.081 57.041,28.29 55.764,30.5 	"/>
	<polygon fill="#5678BB" points="53.215,35.739 51.941,33.53 53.215,31.322 55.764,31.322 57.041,33.53 55.764,35.739 	"/>
	<polygon fill="#5678BB" points="63.59,14.983 62.316,12.774 63.59,10.568 66.141,10.568 67.416,12.774 66.141,14.983 	"/>
	<polygon fill="#5678BB" points="63.59,20.215 62.316,18.009 63.59,15.796 66.141,15.796 67.416,18.009 66.141,20.215 	"/>
	<polygon fill="#5678BB" points="79.205,20.215 77.93,18.009 79.205,15.796 81.754,15.796 83.031,18.009 81.754,20.215 	"/>
	<polygon fill="#5678BB" points="79.205,9.751 77.93,7.544 79.205,5.338 81.754,5.338 83.031,7.544 81.754,9.751 	"/>
	<polygon fill="#5678BB" points="94.82,9.751 93.545,7.544 94.82,5.338 97.367,5.338 98.646,7.544 97.367,9.751 	"/>
	<polygon fill="#5678BB" points="94.82,14.983 93.545,12.774 94.82,10.568 97.367,10.568 98.646,12.774 97.367,14.983 	"/>
	<polygon fill="#5678BB" points="105.275,14.983 104.002,12.774 105.275,10.568 107.826,10.568 109.098,12.774 107.826,14.983 	"/>
	<polygon fill="#5678BB" points="105.275,25.268 104.002,23.057 105.275,20.85 107.826,20.85 109.098,23.057 107.826,25.268 	"/>
	<polygon fill="#5678BB" points="110.373,30.5 109.098,28.29 110.373,26.081 112.924,26.081 114.197,28.29 112.924,30.5 	"/>
	<polygon fill="#5678BB" points="110.373,9.751 109.098,7.544 110.373,5.338 112.924,5.338 114.197,7.544 112.924,9.751 	"/>
	<polygon fill="#5678BB" points="115.617,4.521 114.338,2.311 115.617,0.104 118.166,0.104 119.439,2.311 118.166,4.521 	"/>
	<polygon fill="#5678BB" points="125.896,4.521 124.623,2.311 125.896,0.104 128.451,0.104 129.719,2.311 128.451,4.521 	"/>
	<polygon fill="#5678BB" points="126.037,9.751 124.76,7.544 126.037,5.338 128.588,5.338 129.861,7.544 128.588,9.751 	"/>
	<polygon fill="#5678BB" points="126.037,14.983 124.76,12.774 126.037,10.568 128.588,10.568 129.861,12.774 128.588,14.983 	"/>
	<polygon fill="#5678BB" points="146.715,9.751 145.445,7.544 146.715,5.338 149.266,5.338 150.543,7.544 149.266,9.751 	"/>
	<polygon fill="#5678BB" points="146.715,14.983 145.445,12.774 146.715,10.568 149.266,10.568 150.543,12.774 149.266,14.983 	"/>
	<polygon fill="#5678BB" points="1.27,48.826 0,46.613 1.27,44.41 3.822,44.41 5.096,46.613 3.822,48.826 	"/>
	<polygon fill="#5678BB" points="1.27,54.055 0,51.846 1.27,49.641 3.822,49.641 5.096,51.846 3.822,54.055 	"/>
	<polygon fill="#5678BB" points="1.27,69.641 0,67.432 1.27,65.225 3.822,65.225 5.096,67.432 3.822,69.641 	"/>
	<polygon fill="#5678BB" points="22.149,48.826 20.877,46.613 22.149,44.41 24.701,44.41 25.979,46.613 24.701,48.826 	"/>
	<polygon fill="#5678BB" points="146.715,35.739 145.445,33.53 146.715,31.322 149.266,31.322 150.543,33.53 149.266,35.739 	"/>
	<polygon fill="#5678BB" points="141.547,30.569 140.273,28.358 141.547,26.15 144.098,26.15 145.371,28.358 144.098,30.569 	"/>
	<polygon fill="#5678BB" points="22.149,69.641 20.877,67.432 22.149,65.225 24.701,65.225 25.979,67.432 24.701,69.641 	"/>
	<polygon fill="#5678BB" points="22.074,64.451 20.798,62.246 22.074,60.035 24.625,60.035 25.9,62.246 24.625,64.451 	"/>
	<polygon fill="#5678BB" points="126.037,20.215 124.76,18.009 126.037,15.796 128.588,15.796 129.861,18.009 128.588,20.215 	"/>
	<polygon fill="#5678BB" points="131.26,20.215 129.98,18.009 131.26,15.796 133.807,15.796 135.084,18.009 133.807,20.215 	"/>
	<polygon fill="#5678BB" points="136.359,20.215 135.084,18.009 136.359,15.796 138.908,15.796 140.18,18.009 138.908,20.215 	"/>
	<polygon fill="#5678BB" points="136.359,25.268 135.084,23.057 136.359,20.85 138.908,20.85 140.18,23.057 138.908,25.268 	"/>
	<polygon fill="#5678BB" points="141.617,20.215 140.342,18.009 141.617,15.796 144.168,15.796 145.445,18.009 144.168,20.215 	"/>
	<polygon fill="#5678BB" points="126.037,25.268 124.76,23.057 126.037,20.85 128.588,20.85 129.861,23.057 128.588,25.268 	"/>
	<polygon fill="#5678BB" points="126.037,30.5 124.76,28.29 126.037,26.081 128.588,26.081 129.861,28.29 128.588,30.5 	"/>
	<polygon fill="#5678BB" points="126.037,35.739 124.76,33.53 126.037,31.322 128.588,31.322 129.861,33.53 128.588,35.739 	"/>
	<polygon fill="#5678BB" points="136.359,4.521 135.084,2.311 136.359,0.104 138.908,0.104 140.18,2.311 138.908,4.521 	"/>
	<polygon fill="#5678BB" points="131.139,4.521 129.861,2.311 131.139,0.104 133.688,0.104 134.963,2.311 133.688,4.521 	"/>
	<polygon fill="#5678BB" points="141.617,4.521 140.342,2.311 141.617,0.104 144.168,0.104 145.445,2.311 144.168,4.521 	"/>
	<polygon fill="#5678BB" points="11.592,43.592 10.319,41.385 11.592,39.178 14.144,39.178 15.421,41.385 14.144,43.592 	"/>
	<polygon fill="#5678BB" points="6.373,43.592 5.096,41.385 6.373,39.178 8.924,39.178 10.197,41.385 8.924,43.592 	"/>
	<polygon fill="#5678BB" points="16.852,43.592 15.581,41.385 16.852,39.178 19.404,39.178 20.678,41.385 19.404,43.592 	"/>
	<polygon fill="#5678BB" points="11.592,59.285 10.319,57.078 11.592,54.869 14.144,54.869 15.421,57.078 14.144,59.285 	"/>
	<polygon fill="#5678BB" points="6.373,59.285 5.096,57.078 6.373,54.869 8.924,54.869 10.197,57.078 8.924,59.285 	"/>
	<polygon fill="#5678BB" points="16.852,59.285 15.581,57.078 16.852,54.869 19.404,54.869 20.678,57.078 19.404,59.285 	"/>
	<polygon fill="#5678BB" points="11.592,74.811 10.319,72.6 11.592,70.396 14.144,70.396 15.421,72.6 14.144,74.811 	"/>
	<polygon fill="#5678BB" points="6.373,74.811 5.096,72.6 6.373,70.396 8.924,70.396 10.197,72.6 8.924,74.811 	"/>
	<polygon fill="#5678BB" points="16.852,74.811 15.581,72.6 16.852,70.396 19.404,70.396 20.678,72.6 19.404,74.811 	"/>
	<polygon fill="#5678BB" points="115.617,35.739 114.338,33.53 115.617,31.322 118.166,31.322 119.439,33.53 118.166,35.739 	"/>
	<polygon fill="#5678BB" points="94.82,20.215 93.545,18.009 94.82,15.796 97.367,15.796 98.646,18.009 97.367,20.215 	"/>
	<polygon fill="#5678BB" points="100.02,20.215 98.742,18.009 100.02,15.796 102.566,15.796 103.842,18.009 102.566,20.215 	"/>
	<polygon fill="#5678BB" points="94.82,25.268 93.545,23.057 94.82,20.85 97.367,20.85 98.646,23.057 97.367,25.268 	"/>
	<polygon fill="#5678BB" points="94.82,30.5 93.545,28.29 94.82,26.081 97.367,26.081 98.646,28.29 97.367,30.5 	"/>
	<polygon fill="#5678BB" points="94.82,35.739 93.545,33.53 94.82,31.322 97.367,31.322 98.646,33.53 97.367,35.739 	"/>
	<polygon fill="#5678BB" points="94.82,4.521 93.545,2.311 94.82,0.104 97.367,0.104 98.646,2.311 97.367,4.521 	"/>
	<polygon fill="#5678BB" points="73.988,20.215 72.717,18.009 73.988,15.796 76.539,15.796 77.812,18.009 76.539,20.215 	"/>
	<polygon fill="#5678BB" points="73.988,4.521 72.717,2.311 73.988,0.104 76.539,0.104 77.812,2.311 76.539,4.521 	"/>
	<polygon fill="#5678BB" points="68.799,20.215 67.521,18.009 68.799,15.796 71.348,15.796 72.627,18.009 71.348,20.215 	"/>
	<polygon fill="#5678BB" points="68.799,9.751 67.521,7.544 68.799,5.338 71.348,5.338 72.627,7.544 71.348,9.751 	"/>
	<polygon fill="#5678BB" points="63.59,25.268 62.316,23.057 63.59,20.85 66.141,20.85 67.416,23.057 66.141,25.268 	"/>
	<polygon fill="#5678BB" points="63.59,30.5 62.316,28.29 63.59,26.081 66.141,26.081 67.416,28.29 66.141,30.5 	"/>
	<polygon fill="#5678BB" points="63.59,35.739 62.316,33.53 63.59,31.322 66.141,31.322 67.416,33.53 66.141,35.739 	"/>
	<polygon fill="#5678BB" points="84.393,14.983 83.117,12.774 84.393,10.568 86.941,10.568 88.217,12.774 86.941,14.983 	"/>
	<polygon fill="#5678BB" points="84.393,20.215 83.117,18.009 84.393,15.796 86.941,15.796 88.217,18.009 86.941,20.215 	"/>
	<polygon fill="#5678BB" points="84.393,25.268 83.117,23.057 84.393,20.85 86.941,20.85 88.217,23.057 86.941,25.268 	"/>
	<polygon fill="#5678BB" points="84.393,30.5 83.117,28.29 84.393,26.081 86.941,26.081 88.217,28.29 86.941,30.5 	"/>
	<polygon fill="#5678BB" points="84.393,35.739 83.117,33.53 84.393,31.322 86.941,31.322 88.217,33.53 86.941,35.739 	"/>
	<polygon fill="#5678BB" points="63.582,54.055 62.307,51.846 63.582,49.641 66.129,49.641 67.406,51.846 66.129,54.055 	"/>
	<polygon fill="#5678BB" points="63.582,59.285 62.307,57.078 63.582,54.869 66.129,54.869 67.406,57.078 66.129,59.285 	"/>
	<polygon fill="#5678BB" points="79.195,59.285 77.922,57.078 79.195,54.869 81.75,54.869 83.021,57.078 81.75,59.285 	"/>
	<polygon fill="#5678BB" points="79.195,48.826 77.922,46.613 79.195,44.41 81.75,44.41 83.021,46.613 81.75,48.826 	"/>
	<polygon fill="#5678BB" points="94.811,48.826 93.537,46.613 94.811,44.41 97.361,44.41 98.635,46.613 97.361,48.826 	"/>
	<polygon fill="#5678BB" points="94.811,54.055 93.537,51.846 94.811,49.641 97.361,49.641 98.635,51.846 97.361,54.055 	"/>
	<polygon fill="#5678BB" points="105.266,54.055 103.988,51.846 105.266,49.641 107.818,49.641 109.088,51.846 107.818,54.055 	"/>
	<polygon fill="#5678BB" points="105.266,64.34 103.988,62.135 105.266,59.922 107.818,59.922 109.088,62.135 107.818,64.34 	"/>
	<polygon fill="#5678BB" points="110.365,69.57 109.088,67.363 110.365,65.154 112.914,65.154 114.189,67.363 112.914,69.57 	"/>
	<polygon fill="#5678BB" points="110.365,48.826 109.088,46.613 110.365,44.41 112.914,44.41 114.189,46.613 112.914,48.826 	"/>
	<polygon fill="#5678BB" points="115.607,43.592 114.33,41.385 115.607,39.178 118.156,39.178 119.43,41.385 118.156,43.592 	"/>
	<polygon fill="#5678BB" points="125.887,43.592 124.611,41.385 125.887,39.178 128.439,39.178 129.715,41.385 128.439,43.592 	"/>
	<polygon fill="#5678BB" points="126.027,48.826 124.756,46.613 126.027,44.41 128.578,44.41 129.854,46.613 128.578,48.826 	"/>
	<polygon fill="#5678BB" points="126.027,54.055 124.756,51.846 126.027,49.641 128.578,49.641 129.854,51.846 128.578,54.055 	"/>
	<polygon fill="#5678BB" points="146.707,48.826 145.434,46.613 146.707,44.41 149.258,44.41 150.533,46.613 149.258,48.826 	"/>
	<polygon fill="#5678BB" points="146.707,54.055 145.434,51.846 146.707,49.641 149.258,49.641 150.533,51.846 149.258,54.055 	"/>
	<polygon fill="#5678BB" points="146.707,74.811 145.434,72.6 146.707,70.396 149.258,70.396 150.533,72.6 149.258,74.811 	"/>
	<polygon fill="#5678BB" points="141.537,69.641 140.266,67.432 141.537,65.225 144.09,65.225 145.359,67.432 144.09,69.641 	"/>
	<polygon fill="#5678BB" points="126.027,59.285 124.756,57.078 126.027,54.869 128.578,54.869 129.854,57.078 128.578,59.285 	"/>
	<polygon fill="#5678BB" points="131.25,59.285 129.975,57.078 131.25,54.869 133.801,54.869 135.076,57.078 133.801,59.285 	"/>
	<polygon fill="#5678BB" points="136.348,59.285 135.076,57.078 136.348,54.869 138.898,54.869 140.176,57.078 138.898,59.285 	"/>
	<polygon fill="#5678BB" points="136.348,64.34 135.076,62.135 136.348,59.922 138.898,59.922 140.176,62.135 138.898,64.34 	"/>
	<polygon fill="#5678BB" points="141.607,59.285 140.338,57.078 141.607,54.869 144.156,54.869 145.434,57.078 144.156,59.285 	"/>
	<polygon fill="#5678BB" points="126.027,64.34 124.756,62.135 126.027,59.922 128.578,59.922 129.854,62.135 128.578,64.34 	"/>
	<polygon fill="#5678BB" points="126.027,69.57 124.756,67.363 126.027,65.154 128.578,65.154 129.854,67.363 128.578,69.57 	"/>
	<polygon fill="#5678BB" points="126.027,74.811 124.756,72.6 126.027,70.396 128.578,70.396 129.854,72.6 128.578,74.811 	"/>
	<polygon fill="#5678BB" points="136.348,43.592 135.076,41.385 136.348,39.178 138.898,39.178 140.176,41.385 138.898,43.592 	"/>
	<polygon fill="#5678BB" points="131.129,43.592 129.854,41.385 131.129,39.178 133.678,39.178 134.951,41.385 133.678,43.592 	"/>
	<polygon fill="#5678BB" points="141.607,43.592 140.338,41.385 141.607,39.178 144.156,39.178 145.434,41.385 144.156,43.592 	"/>
	<polygon fill="#5678BB" points="115.607,74.811 114.33,72.6 115.607,70.396 118.156,70.396 119.43,72.6 118.156,74.811 	"/>
	<polygon fill="#5678BB" points="94.811,59.285 93.537,57.078 94.811,54.869 97.361,54.869 98.635,57.078 97.361,59.285 	"/>
	<polygon fill="#5678BB" points="100.006,59.285 98.732,57.078 100.006,54.869 102.562,54.869 103.834,57.078 102.562,59.285 	"/>
	<polygon fill="#5678BB" points="94.811,64.34 93.537,62.135 94.811,59.922 97.361,59.922 98.635,62.135 97.361,64.34 	"/>
	<polygon fill="#5678BB" points="94.811,69.57 93.537,67.363 94.811,65.154 97.361,65.154 98.635,67.363 97.361,69.57 	"/>
	<polygon fill="#5678BB" points="94.811,74.811 93.537,72.6 94.811,70.396 97.361,70.396 98.635,72.6 97.361,74.811 	"/>
	<polygon fill="#5678BB" points="94.811,43.592 93.537,41.385 94.811,39.178 97.361,39.178 98.635,41.385 97.361,43.592 	"/>
	<polygon fill="#5678BB" points="73.98,59.285 72.707,57.078 73.98,54.869 76.531,54.869 77.803,57.078 76.531,59.285 	"/>
	<polygon fill="#5678BB" points="73.98,43.592 72.707,41.385 73.98,39.178 76.531,39.178 77.803,41.385 76.531,43.592 	"/>
	<polygon fill="#5678BB" points="68.791,59.285 67.514,57.078 68.791,54.869 71.34,54.869 72.615,57.078 71.34,59.285 	"/>
	<polygon fill="#5678BB" points="68.791,48.826 67.514,46.613 68.791,44.41 71.34,44.41 72.615,46.613 71.34,48.826 	"/>
	<polygon fill="#5678BB" points="63.582,64.34 62.307,62.135 63.582,59.922 66.129,59.922 67.406,62.135 66.129,64.34 	"/>
	<polygon fill="#5678BB" points="63.582,69.57 62.307,67.363 63.582,65.154 66.129,65.154 67.406,67.363 66.129,69.57 	"/>
	<polygon fill="#5678BB" points="63.582,74.811 62.307,72.6 63.582,70.396 66.129,70.396 67.406,72.6 66.129,74.811 	"/>
	<polygon fill="#5678BB" points="84.385,54.055 83.109,51.846 84.385,49.641 86.932,49.641 88.209,51.846 86.932,54.055 	"/>
	<polygon fill="#5678BB" points="84.385,59.285 83.109,57.078 84.385,54.869 86.932,54.869 88.209,57.078 86.932,59.285 	"/>
	<polygon fill="#5678BB" points="84.385,64.34 83.109,62.135 84.385,59.922 86.932,59.922 88.209,62.135 86.932,64.34 	"/>
	<polygon fill="#5678BB" points="84.385,69.57 83.109,67.363 84.385,65.154 86.932,65.154 88.209,67.363 86.932,69.57 	"/>
	<polygon fill="#5678BB" points="84.385,74.811 83.109,72.6 84.385,70.396 86.932,70.396 88.209,72.6 86.932,74.811 	"/>
	<polygon fill="#5678BB" points="32.412,35.739 31.137,33.53 32.412,31.322 34.961,31.322 36.236,33.53 34.961,35.739 	"/>
	<polygon fill="#5678BB" points="37.648,9.751 36.377,7.544 37.648,5.338 40.197,5.338 41.475,7.544 40.197,9.751 	"/>
	<polygon fill="#5678BB" points="42.857,14.983 41.582,12.774 42.857,10.568 45.408,10.568 46.682,12.774 45.408,14.983 	"/>
	<polygon fill="#5678BB" points="42.857,20.215 41.582,18.009 42.857,15.796 45.408,15.796 46.682,18.009 45.408,20.215 	"/>
	<polygon fill="#5678BB" points="32.471,43.678 31.197,41.473 32.471,39.262 35.025,39.262 36.295,41.473 35.025,43.678 	"/>
	<polygon fill="#5678BB" points="32.471,48.91 31.197,46.703 32.471,44.496 35.025,44.496 36.295,46.703 35.025,48.91 	"/>
	<polygon fill="#5678BB" points="32.471,54.137 31.197,51.93 32.471,49.723 35.025,49.723 36.295,51.93 35.025,54.137 	"/>
	<polygon fill="#5678BB" points="32.471,59.373 31.197,57.16 32.471,54.957 35.025,54.957 36.295,57.16 35.025,59.373 	"/>
	<polygon fill="#5678BB" points="32.471,64.604 31.197,62.395 32.471,60.184 35.025,60.184 36.295,62.395 35.025,64.604 	"/>
	<polygon fill="#5678BB" points="32.471,69.834 31.197,67.625 32.471,65.418 35.025,65.418 36.295,67.625 35.025,69.834 	"/>
	<polygon fill="#5678BB" points="53.273,48.91 51.998,46.703 53.273,44.496 55.824,44.496 57.102,46.703 55.824,48.91 	"/>
	<polygon fill="#5678BB" points="53.273,43.678 51.998,41.473 53.273,39.262 55.824,39.262 57.102,41.473 55.824,43.678 	"/>
	<polygon fill="#5678BB" points="48.105,59.285 46.83,57.078 48.105,54.869 50.656,54.869 51.934,57.078 50.656,59.285 	"/>
	<polygon fill="#5678BB" points="53.273,54.137 51.998,51.93 53.273,49.723 55.824,49.723 57.102,51.93 55.824,54.137 	"/>
	<polygon fill="#5678BB" points="53.273,59.373 51.998,57.16 53.273,54.957 55.824,54.957 57.102,57.16 55.824,59.373 	"/>
	<polygon fill="#5678BB" points="53.273,64.422 51.998,62.217 53.273,60.006 55.824,60.006 57.102,62.217 55.824,64.422 	"/>
	<polygon fill="#5678BB" points="53.273,69.658 51.998,67.445 53.273,65.238 55.824,65.238 57.102,67.445 55.824,69.658 	"/>
	<polygon fill="#5678BB" points="53.273,74.896 51.998,72.684 53.273,70.48 55.824,70.48 57.102,72.684 55.824,74.896 	"/>
	<polygon fill="#5678BB" points="32.471,74.896 31.197,72.684 32.471,70.48 35.025,70.48 36.295,72.684 35.025,74.896 	"/>
	<polygon fill="#5678BB" points="37.709,59.373 36.434,57.16 37.709,54.957 40.26,54.957 41.535,57.16 40.26,59.373 	"/>
	<polygon fill="#5678BB" points="42.918,59.373 41.641,57.16 42.918,54.957 45.471,54.957 46.74,57.16 45.471,59.373 	"/>
</g>
</svg>
