<?xml version="1.0" encoding="utf-8"?>
<!-- Generator: Adobe Illustrator 16.0.4, SVG Export Plug-In . SVG Version: 6.00 Build 0)  -->
<!DOCTYPE svg PUBLIC "-//W3C//DTD SVG 1.1//EN" "http://www.w3.org/Graphics/SVG/1.1/DTD/svg11.dtd">
<svg version="1.1" id="Layer_1" xmlns="http://www.w3.org/2000/svg" xmlns:xlink="http://www.w3.org/1999/xlink" x="0px" y="0px"
	 width="22px" height="12px" viewBox="0 0 22 12" enable-background="new 0 0 22 12" xml:space="preserve">
<g id="New_Symbol_3">
</g>
<g id="New_Symbol">
</g>
<g>
	<g>
		<g>
			
				<rect x="11.282" y="5" transform="matrix(0.6402 0.7682 -0.7682 0.6402 10.6969 -10.8376)" fill="#FFFFFF" width="11.27" height="2"/>
		</g>
		<g>
			
				<rect x="4.492" y="0.069" transform="matrix(0.7299 0.6835 -0.6835 0.7299 5.5844 -2.1333)" fill="#FFFFFF" width="2" height="11.863"/>
		</g>
	</g>
</g>
</svg>
