<?xml version="1.0" encoding="utf-8"?>
<!-- Generator: Adobe Illustrator 16.0.4, SVG Export Plug-In . SVG Version: 6.00 Build 0)  -->
<!DOCTYPE svg PUBLIC "-//W3C//DTD SVG 1.1//EN" "http://www.w3.org/Graphics/SVG/1.1/DTD/svg11.dtd">
<svg version="1.1" id="Layer_1" xmlns="http://www.w3.org/2000/svg" xmlns:xlink="http://www.w3.org/1999/xlink" x="0px" y="0px"
	 width="44px" height="46px" viewBox="0 0 44 46" enable-background="new 0 0 44 46" xml:space="preserve">
<g>
	
		<line fill="none" stroke="#F28D00" stroke-width="2.0099" stroke-linecap="round" stroke-linejoin="round" stroke-miterlimit="10" x1="4.096" y1="11.418" x2="21.451" y2="2"/>
	
		<line fill="none" stroke="#F28D00" stroke-width="2.0099" stroke-linecap="round" stroke-linejoin="round" stroke-miterlimit="10" x1="22.872" y1="2" x2="40.226" y2="11.418"/>
	
		<line fill="none" stroke="#F28D00" stroke-width="2.0099" stroke-linecap="round" stroke-linejoin="round" stroke-miterlimit="10" x1="40.937" y1="13.195" x2="40.937" y2="33.099"/>
	
		<line fill="none" stroke="#F28D00" stroke-width="2.0099" stroke-linecap="round" stroke-linejoin="round" stroke-miterlimit="10" x1="40.226" y1="34.52" x2="22.872" y2="43.938"/>
	
		<line fill="none" stroke="#F28D00" stroke-width="2.0099" stroke-linecap="round" stroke-linejoin="round" stroke-miterlimit="10" x1="21.451" y1="43.938" x2="4.451" y2="34.875"/>
	
		<line fill="none" stroke="#F28D00" stroke-width="2.0099" stroke-linecap="round" stroke-linejoin="round" stroke-miterlimit="10" x1="3.386" y1="33.454" x2="3.386" y2="13.195"/>
	<g>
		<defs>
			<polygon id="SVGID_7_" points="40.732,34.619 21.247,43.995 3.441,34.619 3.441,25.736 40.732,24.736 			"/>
		</defs>
		<clipPath id="SVGID_2_">
			<use xlink:href="#SVGID_7_"  overflow="visible"/>
		</clipPath>
		<g clip-path="url(#SVGID_2_)">
			
				<line fill="none" stroke="#F28D00" stroke-width="0.9187" stroke-linecap="round" stroke-linejoin="round" stroke-miterlimit="10" x1="43.811" y1="43.791" x2="79.702" y2="24.579"/>
			
				<line fill="none" stroke="#F28D00" stroke-width="0.9187" stroke-linecap="round" stroke-linejoin="round" stroke-miterlimit="10" x1="38.696" y1="43.791" x2="74.588" y2="24.579"/>
			
				<line fill="none" stroke="#F28D00" stroke-width="0.9187" stroke-linecap="round" stroke-linejoin="round" stroke-miterlimit="10" x1="33.583" y1="43.791" x2="69.474" y2="24.579"/>
			
				<line fill="none" stroke="#F28D00" stroke-width="0.9187" stroke-linecap="round" stroke-linejoin="round" stroke-miterlimit="10" x1="28.469" y1="43.791" x2="64.36" y2="24.579"/>
			
				<line fill="none" stroke="#F28D00" stroke-width="0.9187" stroke-linecap="round" stroke-linejoin="round" stroke-miterlimit="10" x1="23.354" y1="43.791" x2="59.246" y2="24.579"/>
			
				<line fill="none" stroke="#F28D00" stroke-width="0.9187" stroke-linecap="round" stroke-linejoin="round" stroke-miterlimit="10" x1="18.241" y1="43.791" x2="54.132" y2="24.579"/>
			
				<line fill="none" stroke="#F28D00" stroke-width="0.9187" stroke-linecap="round" stroke-linejoin="round" stroke-miterlimit="10" x1="13.126" y1="43.791" x2="49.019" y2="24.579"/>
			
				<line fill="none" stroke="#F28D00" stroke-width="0.9187" stroke-linecap="round" stroke-linejoin="round" stroke-miterlimit="10" x1="8.013" y1="43.791" x2="43.904" y2="24.579"/>
			
				<line fill="none" stroke="#F28D00" stroke-width="0.9187" stroke-linecap="round" stroke-linejoin="round" stroke-miterlimit="10" x1="2.898" y1="43.791" x2="38.79" y2="24.579"/>
			
				<line fill="none" stroke="#F28D00" stroke-width="0.9187" stroke-linecap="round" stroke-linejoin="round" stroke-miterlimit="10" x1="-2.215" y1="43.791" x2="33.676" y2="24.579"/>
			
				<line fill="none" stroke="#F28D00" stroke-width="0.9187" stroke-linecap="round" stroke-linejoin="round" stroke-miterlimit="10" x1="-7.329" y1="43.791" x2="28.562" y2="24.579"/>
			
				<line fill="none" stroke="#F28D00" stroke-width="0.9187" stroke-linecap="round" stroke-linejoin="round" stroke-miterlimit="10" x1="-12.443" y1="43.791" x2="23.448" y2="24.579"/>
			
				<line fill="none" stroke="#F28D00" stroke-width="0.9187" stroke-linecap="round" stroke-linejoin="round" stroke-miterlimit="10" x1="-17.558" y1="43.791" x2="18.334" y2="24.579"/>
			
				<line fill="none" stroke="#F28D00" stroke-width="0.9187" stroke-linecap="round" stroke-linejoin="round" stroke-miterlimit="10" x1="-22.671" y1="43.791" x2="13.22" y2="24.579"/>
			
				<line fill="none" stroke="#F28D00" stroke-width="0.9187" stroke-linecap="round" stroke-linejoin="round" stroke-miterlimit="10" x1="-27.785" y1="43.791" x2="8.106" y2="24.579"/>
			
				<line fill="none" stroke="#F28D00" stroke-width="0.9187" stroke-linecap="round" stroke-linejoin="round" stroke-miterlimit="10" x1="-32.899" y1="43.791" x2="2.992" y2="24.579"/>
		</g>
	</g>
</g>
<g>
	<g>
		<defs>
			<polygon id="SVGID_13_" points="-13.234,34.65 -32.72,44.025 -50.525,34.65 -50.525,25.768 -13.234,24.768 			"/>
		</defs>
		<clipPath id="SVGID_4_">
			<use xlink:href="#SVGID_13_"  overflow="visible"/>
		</clipPath>
		<g clip-path="url(#SVGID_4_)">
			
				<line fill="none" stroke="#7FD35A" stroke-width="0.9139" stroke-linecap="round" stroke-linejoin="round" stroke-miterlimit="10" x1="-10.558" y1="43.822" x2="25.147" y2="24.711"/>
			
				<line fill="none" stroke="#7FD35A" stroke-width="0.9139" stroke-linecap="round" stroke-linejoin="round" stroke-miterlimit="10" x1="-15.645" y1="43.822" x2="20.06" y2="24.711"/>
			
				<line fill="none" stroke="#7FD35A" stroke-width="0.9139" stroke-linecap="round" stroke-linejoin="round" stroke-miterlimit="10" x1="-20.732" y1="43.822" x2="14.973" y2="24.711"/>
			
				<line fill="none" stroke="#7FD35A" stroke-width="0.9139" stroke-linecap="round" stroke-linejoin="round" stroke-miterlimit="10" x1="-25.819" y1="43.822" x2="9.885" y2="24.711"/>
			
				<line fill="none" stroke="#7FD35A" stroke-width="0.9139" stroke-linecap="round" stroke-linejoin="round" stroke-miterlimit="10" x1="-30.906" y1="43.822" x2="4.798" y2="24.711"/>
			
				<line fill="none" stroke="#7FD35A" stroke-width="0.9139" stroke-linecap="round" stroke-linejoin="round" stroke-miterlimit="10" x1="-35.994" y1="43.822" x2="-0.289" y2="24.711"/>
		</g>
	</g>
</g>
<g id="New_Symbol_3">
</g>
<g id="New_Symbol">
</g>
</svg>
