<?xml version="1.0" encoding="utf-8"?>
<!-- Generator: Adobe Illustrator 16.0.4, SVG Export Plug-In . SVG Version: 6.00 Build 0)  -->
<!DOCTYPE svg PUBLIC "-//W3C//DTD SVG 1.1//EN" "http://www.w3.org/Graphics/SVG/1.1/DTD/svg11.dtd">
<svg version="1.1" id="Layer_1" xmlns="http://www.w3.org/2000/svg" xmlns:xlink="http://www.w3.org/1999/xlink" x="0px" y="0px"
	 width="17px" height="15px" viewBox="0 0 17 15" enable-background="new 0 0 17 15" xml:space="preserve">
<symbol  id="New_Symbol_1_" viewBox="-78.152 -24.247 156.304 48.493">
	<g>
		<path fill="#FF6E38" d="M-0.525,18.473l15.999-9.234L15.473-9.237l-15.998-9.236l-16.001,9.237l0.003,18.472L-0.525,18.473
			 M-0.525,24.247l-20.998-12.123l-0.004-24.246l21.002-12.124l20.998,12.123l0.001,24.25L-0.525,24.247L-0.525,24.247z"/>
	</g>
	<g>
		<defs>
			<polygon id="SVGID_21_" points="-0.525,-24.247 -21.527,-12.123 -21.523,12.124 -0.525,24.247 20.474,12.126 20.473,-12.124 			
				"/>
		</defs>
		<clipPath id="SVGID_2_">
			<use xlink:href="#SVGID_21_"  overflow="visible"/>
		</clipPath>
		<g clip-path="url(#SVGID_2_)">
			
				<line fill="none" stroke="#FF6E38" stroke-width="0.3" stroke-linecap="round" stroke-linejoin="round" stroke-miterlimit="10" x1="9.504" y1="-19.704" x2="78.002" y2="18.581"/>
			
				<line fill="none" stroke="#FF6E38" stroke-width="0.3" stroke-linecap="round" stroke-linejoin="round" stroke-miterlimit="10" x1="-2.997" y1="-19.704" x2="65.501" y2="18.581"/>
			
				<line fill="none" stroke="#FF6E38" stroke-width="0.3" stroke-linecap="round" stroke-linejoin="round" stroke-miterlimit="10" x1="-15.498" y1="-19.704" x2="53" y2="18.581"/>
			
				<line fill="none" stroke="#FF6E38" stroke-width="0.3" stroke-linecap="round" stroke-linejoin="round" stroke-miterlimit="10" x1="-27.999" y1="-19.704" x2="40.499" y2="18.581"/>
			
				<line fill="none" stroke="#FF6E38" stroke-width="0.3" stroke-linecap="round" stroke-linejoin="round" stroke-miterlimit="10" x1="-40.5" y1="-19.704" x2="27.998" y2="18.581"/>
			
				<line fill="none" stroke="#FF6E38" stroke-width="0.3" stroke-linecap="round" stroke-linejoin="round" stroke-miterlimit="10" x1="-53" y1="-19.704" x2="15.497" y2="18.581"/>
			
				<line fill="none" stroke="#FF6E38" stroke-width="0.3" stroke-linecap="round" stroke-linejoin="round" stroke-miterlimit="10" x1="-65.501" y1="-19.704" x2="2.996" y2="18.581"/>
			
				<line fill="none" stroke="#FF6E38" stroke-width="0.3" stroke-linecap="round" stroke-linejoin="round" stroke-miterlimit="10" x1="-78.002" y1="-19.704" x2="-9.505" y2="18.581"/>
		</g>
	</g>
</symbol>
<g id="New_Symbol_3">
</g>
<g id="New_Symbol">
</g>
<use xlink:href="#New_Symbol_1_"  width="156.304" height="48.493" id="XMLID_1_" x="-78.152" y="-24.247" transform="matrix(0.2729 0 0 -0.2729 8.6724 7.5)" overflow="visible"/>
</svg>
